<svg width="24" height="24" viewBox="0 0 24 24" fill="none" xmlns="http://www.w3.org/2000/svg">
<path d="M20 7.03823C19.4105 7.2995 18.7785 7.47587 18.1155 7.55588C18.7932 7.14927 19.3125 6.50587 19.5591 5.74164C18.9239 6.11722 18.2217 6.38993 17.4738 6.53853C16.8745 5.90004 16.022 5.50159 15.0782 5.50159C13.2656 5.50159 11.7959 6.97127 11.7959 8.78389C11.7959 9.04027 11.8253 9.29175 11.8808 9.5318C9.15207 9.39463 6.73362 8.08824 5.11533 6.10089C4.83282 6.58426 4.67116 7.14927 4.67116 7.75021C4.67116 8.89003 5.25087 9.89432 6.13105 10.4822C5.59379 10.4642 5.08757 10.3156 4.6434 10.0707V10.1115C4.6434 11.702 5.77506 13.028 7.27577 13.3301C7.00143 13.4036 6.71076 13.4444 6.41029 13.4444C6.198 13.4444 5.99388 13.4232 5.79302 13.384C6.21106 14.6888 7.42274 15.6375 8.85977 15.6637C7.73627 16.5438 6.32047 17.0664 4.7822 17.0664C4.51766 17.0664 4.25638 17.0501 4 17.0207C5.45009 17.9547 7.17453 18.4985 9.0296 18.4985C15.0684 18.4985 18.3703 13.4967 18.3703 9.15784L18.3588 8.73327C19.0022 8.2744 19.5607 7.69632 20 7.03823Z" fill="#343A40"/>
</svg>
